%YAML 1.1
%TAG !u! tag:unity3d.com,2011:
--- !u!74 &7400000
AnimationClip:
  m_ObjectHideFlags: 0
  m_CorrespondingSourceObject: {fileID: 0}
  m_PrefabInstance: {fileID: 0}
  m_PrefabAsset: {fileID: 0}
  m_Name: Idle
  serializedVersion: 6
  m_Legacy: 0
  m_Compressed: 0
  m_UseHighQualityCurve: 1
  m_RotationCurves: []
  m_CompressedRotationCurves: []
  m_EulerCurves: []
  m_PositionCurves: []
  m_ScaleCurves: []
  m_FloatCurves: []
  m_PPtrCurves:
  - curve:
    - time: 0
      value: {fileID: 21300000, guid: 0607f1159565c3345ad6d822d5bbd310, type: 3}
    - time: 0.083333336
      value: {fileID: 21300000, guid: 009630cec13019f45bc783492aba21cc, type: 3}
    - time: 0.16666667
      value: {fileID: 21300000, guid: c91c1a36d8761bf43b19f6dc376579a5, type: 3}
    - time: 0.25
      value: {fileID: 21300000, guid: cc14eedffc77c02408f50644fd377d87, type: 3}
    - time: 0.33333334
      value: {fileID: 21300000, guid: 14e8f7800f209b344882800d93db5c15, type: 3}
    - time: 0.41666666
      value: {fileID: 21300000, guid: 87a71c0af43a1e44d86d6e5efd8466d1, type: 3}
    - time: 0.5
      value: {fileID: 21300000, guid: 790720613780e264ab947081602c2e7e, type: 3}
    - time: 0.5833333
      value: {fileID: 21300000, guid: 6b1f77cc83b102f4494d7dd239a56856, type: 3}
    - time: 0.6666667
      value: {fileID: 21300000, guid: 7d0565bd539208340af39d8103fda48d, type: 3}
    - time: 0.75
      value: {fileID: 21300000, guid: 2905d4082a6a44a479a8ea9e0e52e9f4, type: 3}
    attribute: m_Sprite
    path: 
    classID: 212
    script: {fileID: 0}
  m_SampleRate: 12
  m_WrapMode: 0
  m_Bounds:
    m_Center: {x: 0, y: 0, z: 0}
    m_Extent: {x: 0, y: 0, z: 0}
  m_ClipBindingConstant:
    genericBindings:
    - serializedVersion: 2
      path: 0
      attribute: 0
      script: {fileID: 0}
      typeID: 212
      customType: 23
      isPPtrCurve: 1
    pptrCurveMapping:
    - {fileID: 21300000, guid: 0607f1159565c3345ad6d822d5bbd310, type: 3}
    - {fileID: 21300000, guid: 009630cec13019f45bc783492aba21cc, type: 3}
    - {fileID: 21300000, guid: c91c1a36d8761bf43b19f6dc376579a5, type: 3}
    - {fileID: 21300000, guid: cc14eedffc77c02408f50644fd377d87, type: 3}
    - {fileID: 21300000, guid: 14e8f7800f209b344882800d93db5c15, type: 3}
    - {fileID: 21300000, guid: 87a71c0af43a1e44d86d6e5efd8466d1, type: 3}
    - {fileID: 21300000, guid: 790720613780e264ab947081602c2e7e, type: 3}
    - {fileID: 21300000, guid: 6b1f77cc83b102f4494d7dd239a56856, type: 3}
    - {fileID: 21300000, guid: 7d0565bd539208340af39d8103fda48d, type: 3}
    - {fileID: 21300000, guid: 2905d4082a6a44a479a8ea9e0e52e9f4, type: 3}
  m_AnimationClipSettings:
    serializedVersion: 2
    m_AdditiveReferencePoseClip: {fileID: 0}
    m_AdditiveReferencePoseTime: 0
    m_StartTime: 0
    m_StopTime: 0.8333333
    m_OrientationOffsetY: 0
    m_Level: 0
    m_CycleOffset: 0
    m_HasAdditiveReferencePose: 0
    m_LoopTime: 1
    m_LoopBlend: 0
    m_LoopBlendOrientation: 0
    m_LoopBlendPositionY: 0
    m_LoopBlendPositionXZ: 0
    m_KeepOriginalOrientation: 0
    m_KeepOriginalPositionY: 1
    m_KeepOriginalPositionXZ: 0
    m_HeightFromFeet: 0
    m_Mirror: 0
  m_EditorCurves: []
  m_EulerEditorCurves: []
  m_HasGenericRootTransform: 0
  m_HasMotionFloatCurves: 0
  m_Events: []
